{
  "LampStreaming":{
        "pathFile" : "./src/lampStartup1.json",
        "TOPICLamp" : "LampStreaming",
        "TOPIControl"  : "ControlLamp",
        "TOPICLight" : "SunLight",
        "WattSecondAlogena": 150,
        "WattSecondHOTLED": 30,
        "WattSecondCOLDLED": 25,
        "lampForThread": 100
  },
  "MonitoringSunLight":{
    "TOPICSunLight" : "SunLight",
    "TOPIControl"  : "ControlLamp",
    "DISTANCECONTROL" : 0.50,
    "rangeMin" : 0.0,
    "rangeMax" : 100.0,
    "scaleFactorTraffic" : 0.3333,
    "trafficMin" :30,
    "trafficMax" :70,
    "firstClassTraffic" : 0.30,
    "secondClassTraffic" : 0.70
  },
  "MonitoringLight":{
    "TOPICLamp" : "LampStreaming",
    "TOPICMonitoring" : "Monitoring",
    "TOPICRanking" : "Ranking",
    "TOPICAlert" : "Alert",
    "hourlyEquity" : 3.6,
    "policyWrong" : 3,
    "avgLifeLamp" : 50,
    "ERRORFIELD" : "error into Stream",
    "TypeLamp" : ["alogena" , "coldled" , "hotled"],
    "rankingList" : 10
  },
  "SinkMonitoring":{
    "TableRanking" : "ranking",
    "TableAlert" : "alert"
  }
}
